-0.0007202530529256849
-0.0006519365368015771
-0.0005934430473846053
-0.0005021118359470044
-0.0003246110643833874
3.271583250947931e-19
0.0005364046823883537
0.0013485861129527976
0.0024950840941244563
0.004024258869593412
0.005969880190037736
0.008347350036339964
0.011150836350589766
0.014351544782302095
0.017897288771640246
0.02171343941210864
0.025705250501804427
0.02976146660162287
0.033759038549258644
0.03756869729807985
0.04106107813817724
0.04411304735764224
0.046613865044493365
0.04847082242686403
0.04961401979362692
0.05
0.04961401979362692
0.04847082242686404
0.046613865044493365
0.04411304735764223
0.04106107813817725
0.03756869729807986
0.03375903854925864
0.02976146660162286
0.02570525050180442
0.021713439412108647
0.017897288771640246
0.014351544782302095
0.011150836350589773
0.008347350036339967
0.005969880190037738
0.0040242588695934165
0.0024950840941244555
0.001348586112952799
0.0005364046823883541
3.271583250947932e-19
-0.0003246110643833879
-0.0005021118359470044
-0.0005934430473846057
-0.0006519365368015776
-0.0007202530529256849
